# Blender v2.74 (sub 0) OBJ File: ''
# www.blender.org
mtllib space-invader.mtl
o Cylinder
v 0.000000 0.676550 1.506450
v 0.389869 0.676550 1.455231
v 0.753225 0.676550 1.304586
v 1.065361 0.676550 1.065361
v 1.304586 0.676550 0.753225
v 1.455231 0.676550 0.389869
v 1.506450 0.676550 0.000000
v 1.455231 0.676550 -0.389869
v 1.304586 0.676550 -0.753225
v 1.065361 0.676550 -1.065361
v 0.753225 0.676550 -1.304586
v 0.389869 0.676550 -1.455231
v 0.000000 0.676550 -1.506450
v -0.389869 0.676550 -1.455231
v -0.753225 0.676550 -1.304586
v -1.065361 0.676550 -1.065361
v -1.304586 0.676550 -0.753225
v -1.455231 0.676550 -0.389869
v -1.506450 0.676550 0.000000
v -1.455231 0.676550 0.389869
v -1.304586 0.676550 0.753225
v -1.065361 0.676550 1.065361
v -0.753225 0.676550 1.304586
v -0.389869 0.676550 1.455231
v 0.000000 0.036450 1.506450
v 0.389869 0.036450 1.455231
v 0.753225 0.036450 1.304586
v 1.065361 0.036450 1.065361
v 1.304586 0.036450 0.753225
v 1.455231 0.036450 0.389869
v 1.506450 0.036450 0.000000
v 1.455231 0.036450 -0.389869
v 1.304586 0.036450 -0.753225
v 1.065361 0.036450 -1.065361
v 0.753225 0.036450 -1.304586
v 0.389869 0.036450 -1.455231
v 0.000000 0.036450 -1.506450
v -0.389869 0.036450 -1.455231
v -0.753225 0.036450 -1.304586
v -1.065361 0.036450 -1.065361
v -1.304586 0.036450 -0.753225
v -1.455231 0.036450 -0.389869
v -1.506450 0.036450 0.000000
v -1.455231 0.036450 0.389869
v -1.304586 0.036450 0.753225
v -1.065361 0.036450 1.065361
v -0.753225 0.036450 1.304586
v -0.389869 0.036450 1.455231
v -0.000000 1.441337 0.000000
v 0.000000 0.072728 0.000000
v 0.000000 0.356500 2.190758
v 0.566968 0.356500 2.116273
v -0.566968 0.356500 2.116273
v 1.095379 0.356500 1.897197
v 1.549304 0.356500 1.549304
v 1.897197 0.356500 1.095379
v 2.116273 0.356500 0.566968
v 2.190758 0.356500 -0.000000
v 2.116273 0.356500 -0.566968
v 1.897197 0.356500 -1.095379
v 1.549304 0.356500 -1.549304
v 1.095379 0.356500 -1.897197
v 0.566968 0.356500 -2.116273
v 0.000000 0.356500 -2.190758
v -0.566968 0.356500 -2.116273
v -1.095379 0.356500 -1.897197
v -1.549304 0.356500 -1.549304
v -1.897197 0.356500 -1.095379
v -2.116273 0.356500 -0.566968
v -2.190758 0.356500 -0.000000
v -2.116273 0.356500 0.566968
v -1.897197 0.356500 1.095379
v -1.549304 0.356500 1.549304
v -1.095379 0.356500 1.897197
v 0.311882 0.676550 1.164209
v 0.000000 0.676550 1.205160
v 0.602613 0.676550 1.043642
v 0.852317 0.676550 0.852317
v 1.043642 0.676550 0.602613
v 1.164209 0.676550 0.311882
v 1.205160 0.676550 0.000000
v 1.164209 0.676550 -0.311882
v 1.043642 0.676550 -0.602613
v 0.852317 0.676550 -0.852317
v 0.602613 0.676550 -1.043642
v 0.311882 0.676550 -1.164209
v 0.000000 0.676550 -1.205160
v -0.311882 0.676550 -1.164209
v -0.602613 0.676550 -1.043642
v -0.852317 0.676550 -0.852317
v -1.043642 0.676550 -0.602613
v -1.164209 0.676550 -0.311882
v -1.205160 0.676550 0.000000
v -1.164209 0.676550 0.311882
v -1.043642 0.676550 0.602613
v -0.852317 0.676550 0.852317
v -0.602613 0.676550 1.043642
v -0.311882 0.676550 1.164209
v -0.000000 1.239061 0.830492
v 0.214922 1.239061 0.802272
v 0.415269 1.239061 0.719188
v 0.587343 1.239061 0.587343
v 0.719188 1.239061 0.415269
v 0.802272 1.239061 0.214922
v 0.830492 1.239061 -0.000000
v 0.802272 1.239061 -0.214922
v 0.719188 1.239061 -0.415269
v 0.587343 1.239061 -0.587343
v 0.415269 1.239061 -0.719188
v 0.214922 1.239061 -0.802272
v -0.000000 1.239061 -0.830492
v -0.214922 1.239061 -0.802272
v -0.415269 1.239061 -0.719188
v -0.587343 1.239061 -0.587343
v -0.719188 1.239061 -0.415269
v -0.802272 1.239061 -0.214922
v -0.830492 1.239061 -0.000000
v -0.802272 1.239061 0.214922
v -0.719188 1.239061 0.415269
v -0.587343 1.239061 0.587343
v -0.415269 1.239061 0.719188
v -0.214922 1.239061 0.802272
v -0.000000 1.441337 0.336612
v 0.087104 1.441337 0.325185
v 0.168332 1.441337 0.291485
v 0.238073 1.441337 0.238073
v 0.291485 1.441337 0.168332
v 0.325185 1.441337 0.087104
v 0.336612 1.441337 0.000000
v 0.325185 1.441337 -0.087104
v 0.291485 1.441337 -0.168332
v 0.238073 1.441337 -0.238073
v 0.168332 1.441337 -0.291485
v 0.087104 1.441337 -0.325185
v -0.000000 1.441337 -0.336612
v -0.087104 1.441337 -0.325185
v -0.168332 1.441337 -0.291485
v -0.238073 1.441337 -0.238073
v -0.291485 1.441337 -0.168332
v -0.325185 1.441337 -0.087104
v -0.336612 1.441337 0.000000
v -0.325185 1.441337 0.087104
v -0.291485 1.441337 0.168332
v -0.238073 1.441337 0.238073
v -0.168332 1.441337 0.291485
v -0.087104 1.441337 0.325185
v -0.000000 1.295805 0.752991
v 0.194864 1.295805 0.727406
v -0.000000 1.323230 0.688449
v 0.178157 1.323230 0.665064
v 0.376519 1.295805 0.652071
v 0.344256 1.323230 0.596171
v 0.532535 1.295805 0.532535
v 0.486897 1.323230 0.486897
v 0.652071 1.295805 0.376519
v 0.596171 1.323230 0.344256
v 0.727406 1.295805 0.194864
v 0.665064 1.323230 0.178157
v 0.752991 1.295805 -0.000000
v 0.688449 1.323230 -0.000000
v 0.727406 1.295805 -0.194864
v 0.665064 1.323230 -0.178157
v 0.652071 1.295805 -0.376519
v 0.596171 1.323230 -0.344256
v 0.532535 1.295805 -0.532535
v 0.486897 1.323230 -0.486897
v 0.376519 1.295805 -0.652071
v 0.344256 1.323230 -0.596171
v 0.194864 1.295805 -0.727406
v 0.178157 1.323230 -0.665064
v -0.000000 1.295805 -0.752991
v -0.000000 1.323230 -0.688449
v -0.194864 1.295805 -0.727406
v -0.178157 1.323230 -0.665064
v -0.376519 1.295805 -0.652071
v -0.344256 1.323230 -0.596171
v -0.532535 1.295805 -0.532535
v -0.486897 1.323230 -0.486897
v -0.652071 1.295805 -0.376519
v -0.596171 1.323230 -0.344256
v -0.727406 1.295805 -0.194864
v -0.665064 1.323230 -0.178157
v -0.752991 1.295805 -0.000000
v -0.688449 1.323230 -0.000000
v -0.727406 1.295805 0.194864
v -0.665064 1.323230 0.178157
v -0.652071 1.295805 0.376519
v -0.596171 1.323230 0.344256
v -0.532535 1.295805 0.532535
v -0.486897 1.323230 0.486897
v -0.376519 1.295805 0.652071
v -0.344256 1.323230 0.596171
v -0.194864 1.295805 0.727406
v -0.178157 1.323230 0.665064
v 0.311882 0.185109 1.164209
v 0.000000 0.185109 1.205160
v 0.602613 0.185109 1.043642
v 0.852317 0.185109 0.852317
v 1.043642 0.185109 0.602613
v 1.164209 0.185109 0.311882
v 1.205160 0.185109 0.000000
v 1.164209 0.185109 -0.311882
v 1.043642 0.185109 -0.602613
v 0.852317 0.185109 -0.852317
v 0.602613 0.185109 -1.043642
v 0.311882 0.185109 -1.164209
v 0.000000 0.185109 -1.205160
v -0.311882 0.185109 -1.164209
v -0.602613 0.185109 -1.043642
v -0.852317 0.185109 -0.852317
v -1.043642 0.185109 -0.602613
v -1.164209 0.185109 -0.311882
v -1.205160 0.185109 0.000000
v -1.164209 0.185109 0.311882
v -1.043642 0.185109 0.602613
v -0.852317 0.185109 0.852317
v -0.602613 0.185109 1.043642
v -0.311882 0.185109 1.164209
v 0.233892 0.072728 0.873188
v 0.000000 0.072728 0.903870
v 0.452006 0.072728 0.782695
v 0.639273 0.072728 0.639273
v 0.782695 0.072728 0.452006
v 0.873188 0.072728 0.233892
v 0.903870 0.072728 0.000000
v 0.873188 0.072728 -0.233892
v 0.782695 0.072728 -0.452006
v 0.639273 0.072728 -0.639273
v 0.452006 0.072728 -0.782695
v 0.233892 0.072728 -0.873188
v 0.000000 0.072728 -0.903870
v -0.233892 0.072728 -0.873188
v -0.452006 0.072728 -0.782695
v -0.639273 0.072728 -0.639273
v -0.782695 0.072728 -0.452006
v -0.873188 0.072728 -0.233892
v -0.903870 0.072728 0.000000
v -0.873188 0.072728 0.233892
v -0.782695 0.072728 0.452006
v -0.639273 0.072728 0.639273
v -0.452006 0.072728 0.782695
v -0.233892 0.072728 0.873188
vt 0.500000 0.000000
vt 0.500000 -0.227126
vt 0.688180 -0.202404
vt 0.629400 0.017000
vt 0.863563 -0.129691
vt 0.750000 0.067000
vt 1.014224 -0.014224
vt 0.853600 0.146400
vt 1.129691 0.136437
vt 0.933000 0.250000
vt 1.202404 0.311820
vt 0.983000 0.370600
vt 1.227126 0.500000
vt 1.000000 0.500000
vt 1.202404 0.688180
vt 0.983000 0.629400
vt 1.129691 0.863563
vt 0.933000 0.750000
vt 1.014224 1.014224
vt 0.853600 0.853600
vt 0.863563 1.129691
vt 0.750000 0.933000
vt 0.688180 1.202404
vt 0.629400 0.983000
vt 0.500000 1.227126
vt 0.500000 1.000000
vt 0.311820 1.202404
vt 0.370600 0.983000
vt 0.136437 1.129691
vt 0.250000 0.933000
vt -0.014224 1.014224
vt 0.146400 0.853600
vt -0.129691 0.863563
vt 0.067000 0.750000
vt -0.202404 0.688180
vt 0.017000 0.629400
vt -0.227126 0.500000
vt 0.000000 0.500000
vt -0.202404 0.311820
vt 0.017000 0.370600
vt -0.129691 0.136437
vt 0.067000 0.250000
vt -0.014224 -0.014224
vt 0.146400 0.146400
vt 0.136437 -0.129691
vt 0.250000 0.067000
vt 0.311820 -0.202404
vt 0.370600 0.017000
vt 0.500000 0.388277
vt 0.528910 0.392069
vt 0.500000 0.500000
vt 0.555870 0.403254
vt 0.579018 0.420982
vt 0.596746 0.444130
vt 0.607931 0.471090
vt 0.611723 0.500000
vt 0.607931 0.528910
vt 0.596746 0.555870
vt 0.579018 0.579018
vt 0.555870 0.596746
vt 0.528910 0.607931
vt 0.500000 0.611723
vt 0.471090 0.607931
vt 0.444130 0.596746
vt 0.420982 0.579018
vt 0.403254 0.555870
vt 0.392069 0.528910
vt 0.388277 0.500000
vt 0.392069 0.471090
vt 0.403254 0.444130
vt 0.420982 0.420982
vt 0.444130 0.403254
vt 0.471090 0.392069
vt 0.577630 0.210184
vt 0.500000 0.200000
vt 0.650023 0.240219
vt 0.712179 0.287821
vt 0.759781 0.349977
vt 0.789816 0.422370
vt 0.800000 0.500000
vt 0.789816 0.577630
vt 0.759781 0.650023
vt 0.712179 0.712179
vt 0.650023 0.759781
vt 0.577630 0.789816
vt 0.500000 0.800000
vt 0.422370 0.789816
vt 0.349977 0.759781
vt 0.287821 0.712179
vt 0.240219 0.650023
vt 0.210184 0.577630
vt 0.200000 0.500000
vt 0.210184 0.422370
vt 0.240219 0.349977
vt 0.287821 0.287821
vt 0.349977 0.240219
vt 0.422370 0.210184
vt 0.603516 0.113592
vt 0.500000 0.100000
vt 0.700011 0.153609
vt 0.782889 0.217111
vt 0.846391 0.299989
vt 0.886408 0.396484
vt 0.900000 0.500000
vt 0.886408 0.603516
vt 0.846391 0.700011
vt 0.782889 0.782889
vt 0.700011 0.846391
vt 0.603516 0.886408
vt 0.500000 0.900000
vt 0.396484 0.886408
vt 0.299989 0.846391
vt 0.217111 0.782889
vt 0.153609 0.700011
vt 0.113592 0.603516
vt 0.100000 0.500000
vt 0.113592 0.396484
vt 0.153609 0.299989
vt 0.217111 0.217111
vt 0.299989 0.153609
vt 0.396484 0.113592
vt 0.571334 0.233721
vt 0.500000 0.224355
vt 0.637830 0.261297
vt 0.694943 0.305057
vt 0.738703 0.362170
vt 0.766279 0.428666
vt 0.775645 0.500000
vt 0.766279 0.571334
vt 0.738703 0.637830
vt 0.694943 0.694943
vt 0.637830 0.738703
vt 0.571334 0.766279
vt 0.500000 0.775645
vt 0.428666 0.766279
vt 0.362170 0.738703
vt 0.305057 0.694943
vt 0.261297 0.637830
vt 0.233721 0.571334
vt 0.224355 0.500000
vt 0.233721 0.428666
vt 0.261297 0.362170
vt 0.305057 0.305057
vt 0.362170 0.261297
vt 0.428666 0.233721
vt 0.564677 0.258569
vt 0.500000 0.250078
vt 0.559131 0.279261
vt 0.500000 0.271500
vt 0.624969 0.283574
vt 0.614261 0.302127
vt 0.676752 0.323248
vt 0.661604 0.338396
vt 0.716426 0.375031
vt 0.697873 0.385739
vt 0.741431 0.435323
vt 0.720739 0.440869
vt 0.749922 0.500000
vt 0.728500 0.500000
vt 0.741431 0.564677
vt 0.720739 0.559131
vt 0.716426 0.624969
vt 0.697873 0.614261
vt 0.676752 0.676752
vt 0.661604 0.661604
vt 0.624969 0.716426
vt 0.614261 0.697873
vt 0.564677 0.741431
vt 0.559131 0.720739
vt 0.500000 0.749922
vt 0.500000 0.728500
vt 0.435323 0.741431
vt 0.440869 0.720739
vt 0.375031 0.716426
vt 0.385739 0.697873
vt 0.323248 0.676752
vt 0.338396 0.661604
vt 0.283574 0.624969
vt 0.302127 0.614261
vt 0.258569 0.564677
vt 0.279261 0.559131
vt 0.250078 0.500000
vt 0.271500 0.500000
vt 0.258569 0.435323
vt 0.279261 0.440869
vt 0.283574 0.375031
vt 0.302127 0.385739
vt 0.323248 0.323248
vt 0.338396 0.338396
vt 0.375031 0.283574
vt 0.385739 0.302127
vt 0.435323 0.258569
vt 0.440869 0.279261
vn -0.063400 0.902900 0.425100
vn 0.130300 0.000000 0.991500
vn 0.406000 -0.002400 0.913900
vn 0.109700 0.905800 0.409200
vn 0.359900 -0.001400 0.933000
vn 0.211800 0.905800 0.366900
vn 0.698500 -0.156000 0.698500
vn 0.299500 0.905800 0.299500
vn 0.933000 -0.000700 0.359900
vn 0.366900 0.905800 0.211800
vn 0.913900 -0.001600 0.406000
vn 0.409200 0.905800 0.109700
vn 0.987900 0.000000 -0.155000
vn 0.423700 0.905800 -0.000000
vn 0.913900 0.000000 -0.406000
vn 0.409200 0.905800 -0.109700
vn 0.933000 0.000000 -0.359900
vn 0.366900 0.905800 -0.211800
vn 0.698500 0.156000 -0.698400
vn 0.299500 0.905800 -0.299500
vn 0.359900 0.000000 -0.933000
vn 0.211800 0.905800 -0.366900
vn 0.406000 0.000900 -0.913900
vn 0.109700 0.905800 -0.409200
vn 0.000000 0.155000 -0.987900
vn 0.000000 0.905800 -0.423700
vn -0.406000 -0.002400 -0.913900
vn -0.109700 0.905800 -0.409200
vn -0.359900 -0.001400 -0.933000
vn -0.211800 0.905800 -0.366900
vn -0.698500 -0.156000 -0.698500
vn -0.299500 0.905800 -0.299500
vn -0.933000 -0.000700 -0.359900
vn -0.366900 0.905800 -0.211800
vn -0.913900 -0.001600 -0.406000
vn -0.409200 0.905800 -0.109700
vn -0.987900 0.000000 0.155000
vn -0.423700 0.905800 0.000000
vn -0.913900 0.000000 0.406000
vn -0.409200 0.905800 0.109700
vn -0.933000 0.000000 0.359900
vn -0.366900 0.905800 0.211800
vn -0.698500 0.156000 0.698400
vn -0.299500 0.905800 0.299500
vn -0.359900 0.000000 0.933000
vn -0.211800 0.905800 0.366900
vn -0.406000 0.000900 0.913900
vn -0.109700 0.905800 0.409200
vn -0.130300 0.000000 0.991500
vn 0.063400 0.902900 0.425100
vn -0.000500 0.989800 0.142600
vn 0.036900 0.989800 0.137600
vn 0.000000 1.000000 0.000000
vn 0.071300 0.989800 0.123500
vn 0.100700 0.989800 0.100700
vn 0.123500 0.989800 0.071300
vn 0.137600 0.989800 0.036900
vn 0.142600 0.989800 0.000000
vn 0.137600 0.989800 -0.036900
vn 0.123500 0.989800 -0.071300
vn 0.100700 0.989800 -0.100700
vn 0.071300 0.989800 -0.123500
vn 0.036900 0.989800 -0.137600
vn 0.000000 0.989800 -0.142600
vn -0.036900 0.989800 -0.137600
vn -0.071300 0.989800 -0.123500
vn -0.100700 0.989800 -0.100700
vn -0.123500 0.989800 -0.071300
vn -0.137600 0.989800 -0.036900
vn -0.142600 0.989800 0.000000
vn -0.137600 0.989800 0.036900
vn -0.123500 0.989800 0.071300
vn -0.100700 0.989800 0.100700
vn -0.071300 0.989800 0.123500
vn -0.036900 0.989800 0.137600
vn 0.000000 -1.000000 0.000000
vn -0.063400 -0.902900 0.425100
vn 0.171500 -0.902900 0.394200
vn -0.171500 -0.902900 0.394200
vn 0.063400 -0.902900 0.425100
vn 0.048600 -0.902900 0.427100
vn 0.267300 -0.902900 0.336600
vn 0.157700 -0.902900 0.399900
vn 0.345700 -0.902900 0.255500
vn 0.255500 -0.902900 0.345700
vn 0.399900 -0.902900 0.157700
vn 0.336600 -0.902900 0.267300
vn 0.427100 -0.902900 0.048600
vn 0.394200 -0.902900 0.171500
vn 0.425100 -0.902900 -0.063400
vn 0.425100 -0.902900 0.063400
vn 0.394200 -0.902900 -0.171500
vn 0.427100 -0.902900 -0.048600
vn 0.336600 -0.902900 -0.267300
vn 0.399900 -0.902900 -0.157700
vn 0.255500 -0.902900 -0.345700
vn 0.345700 -0.902900 -0.255500
vn 0.157700 -0.902900 -0.399900
vn 0.267300 -0.902900 -0.336600
vn 0.048600 -0.902900 -0.427100
vn 0.171500 -0.902900 -0.394200
vn -0.063400 -0.902900 -0.425100
vn 0.063400 -0.902900 -0.425100
vn -0.171500 -0.902900 -0.394200
vn -0.048600 -0.902900 -0.427100
vn -0.267300 -0.902900 -0.336600
vn -0.157700 -0.902900 -0.399900
vn -0.345700 -0.902900 -0.255500
vn -0.255500 -0.902900 -0.345700
vn -0.399900 -0.902900 -0.157700
vn -0.336600 -0.902900 -0.267300
vn -0.427100 -0.902900 -0.048600
vn -0.394200 -0.902900 -0.171500
vn -0.425100 -0.902900 0.063400
vn -0.425100 -0.902900 -0.063400
vn -0.394200 -0.902900 0.171500
vn -0.427100 -0.902900 0.048600
vn -0.336600 -0.902900 0.267300
vn -0.399900 -0.902900 0.157700
vn -0.255500 -0.902900 0.345700
vn -0.345700 -0.902900 0.255500
vn -0.157700 -0.902900 0.399900
vn -0.267300 -0.902900 0.336600
vn -0.048600 -0.902900 0.427100
vn 0.000000 0.554400 0.832300
vn 0.215400 0.554400 0.803900
vn 0.188700 0.684900 0.703800
vn 0.000000 0.684900 0.728600
vn 0.416000 0.554300 0.720800
vn 0.364300 0.684900 0.631000
vn 0.588500 0.554400 0.588500
vn 0.515200 0.685000 0.515100
vn 0.720800 0.554300 0.416000
vn 0.631000 0.685000 0.364100
vn 0.803900 0.554400 0.215400
vn 0.703700 0.685000 0.188500
vn 0.832300 0.554400 0.000000
vn 0.728600 0.685000 -0.000100
vn 0.803900 0.554400 -0.215400
vn 0.703700 0.685000 -0.188700
vn 0.720800 0.554300 -0.416000
vn 0.631000 0.684900 -0.364300
vn 0.588500 0.554400 -0.588500
vn 0.515100 0.685000 -0.515200
vn 0.416000 0.554300 -0.720800
vn 0.364100 0.685000 -0.631000
vn 0.215400 0.554400 -0.803900
vn 0.188500 0.685000 -0.703800
vn 0.000000 0.554400 -0.832300
vn -0.000100 0.684900 -0.728600
vn -0.215400 0.554400 -0.803900
vn -0.188700 0.684900 -0.703800
vn -0.416000 0.554300 -0.720800
vn -0.364300 0.684900 -0.631000
vn -0.588500 0.554400 -0.588500
vn -0.515200 0.685000 -0.515100
vn -0.720800 0.554300 -0.416000
vn -0.631000 0.685000 -0.364100
vn -0.803900 0.554400 -0.215400
vn -0.703700 0.685000 -0.188500
vn -0.832300 0.554400 0.000000
vn -0.728600 0.685000 0.000100
vn -0.803900 0.554400 0.215400
vn -0.703700 0.685000 0.188700
vn -0.720800 0.554300 0.416000
vn -0.631000 0.684900 0.364300
vn -0.588500 0.554400 0.588500
vn -0.515100 0.685000 0.515200
vn -0.416000 0.554300 0.720800
vn -0.364100 0.685000 0.631000
vn -0.215400 0.554400 0.803900
vn -0.188500 0.685000 0.703800
vn 0.129300 0.866600 0.481900
vn -0.000000 0.866600 0.499000
vn 0.101200 0.920400 0.377700
vn 0.000000 0.920400 0.391100
vn 0.000000 0.948000 0.318200
vn 0.082400 0.948000 0.307400
vn 0.249600 0.866600 0.432100
vn 0.195500 0.920400 0.338700
vn 0.159100 0.948000 0.275600
vn 0.352900 0.866600 0.352700
vn 0.276500 0.920400 0.276500
vn 0.225000 0.948000 0.225000
vn 0.432200 0.866600 0.249300
vn 0.338700 0.920400 0.195500
vn 0.275600 0.948000 0.159100
vn 0.482000 0.866600 0.129000
vn 0.377700 0.920400 0.101200
vn 0.307400 0.948000 0.082400
vn 0.499000 0.866600 -0.000200
vn 0.391100 0.920400 0.000000
vn 0.318200 0.948000 0.000000
vn 0.481900 0.866600 -0.129300
vn 0.377700 0.920400 -0.101200
vn 0.307400 0.948000 -0.082400
vn 0.432100 0.866600 -0.249600
vn 0.338700 0.920400 -0.195500
vn 0.275600 0.948000 -0.159100
vn 0.352700 0.866600 -0.352900
vn 0.276500 0.920400 -0.276500
vn 0.225000 0.948000 -0.225000
vn 0.249300 0.866600 -0.432200
vn 0.195500 0.920400 -0.338700
vn 0.159100 0.948000 -0.275600
vn 0.129000 0.866600 -0.482000
vn 0.101200 0.920400 -0.377700
vn 0.082400 0.948000 -0.307400
vn -0.000200 0.866600 -0.499000
vn 0.000000 0.920400 -0.391100
vn 0.000000 0.948000 -0.318200
vn -0.129300 0.866600 -0.481900
vn -0.101200 0.920400 -0.377700
vn -0.082400 0.948000 -0.307400
vn -0.249600 0.866600 -0.432100
vn -0.195500 0.920400 -0.338700
vn -0.159100 0.948000 -0.275600
vn -0.352900 0.866600 -0.352700
vn -0.276500 0.920400 -0.276500
vn -0.225000 0.948000 -0.225000
vn -0.432200 0.866600 -0.249300
vn -0.338700 0.920400 -0.195500
vn -0.275600 0.948000 -0.159100
vn -0.482000 0.866600 -0.129000
vn -0.377700 0.920400 -0.101200
vn -0.307400 0.948000 -0.082400
vn -0.499000 0.866600 0.000200
vn -0.391100 0.920400 0.000000
vn -0.318200 0.948000 0.000000
vn -0.481900 0.866600 0.129300
vn -0.377700 0.920400 0.101200
vn -0.307400 0.948000 0.082400
vn -0.432100 0.866600 0.249600
vn -0.338700 0.920400 0.195500
vn -0.275600 0.948000 0.159100
vn -0.352700 0.866600 0.352900
vn -0.276500 0.920400 0.276500
vn -0.225000 0.948000 0.225000
vn -0.249300 0.866600 0.432200
vn -0.195500 0.920400 0.338700
vn -0.159100 0.948000 0.275600
vn -0.129000 0.866600 0.482000
vn -0.101200 0.920400 0.377700
vn -0.082400 0.948000 0.307400
vn -0.058000 -0.895300 -0.441700
vn -0.170700 -0.895300 -0.411600
vn -0.271000 -0.895300 -0.353600
vn -0.353600 -0.895300 -0.271000
vn -0.411600 -0.895300 -0.170700
vn -0.441700 -0.895300 -0.058000
vn -0.441700 -0.895300 0.058000
vn -0.411600 -0.895300 0.170700
vn -0.353600 -0.895300 0.271000
vn -0.271000 -0.895300 0.353600
vn -0.170700 -0.895300 0.411600
vn -0.058000 -0.895300 0.441700
vn 0.058000 -0.895300 0.441700
vn 0.170700 -0.895300 0.411600
vn 0.271000 -0.895300 0.353600
vn 0.353600 -0.895300 0.271000
vn 0.411600 -0.895300 0.170700
vn 0.441700 -0.895300 0.058000
vn 0.441700 -0.895300 -0.058000
vn 0.411600 -0.895300 -0.170700
vn 0.353600 -0.895300 -0.271000
vn 0.271000 -0.895300 -0.353600
vn 0.170700 -0.895300 -0.411600
vn 0.058000 -0.895300 -0.441700
vn 0.045800 -0.936000 0.349100
vn 0.134900 -0.936000 0.325300
vn 0.214100 -0.936000 0.279500
vn 0.279500 -0.936000 0.214100
vn 0.325300 -0.936000 0.134900
vn 0.349100 -0.936000 0.045800
vn 0.349100 -0.936000 -0.045800
vn 0.325300 -0.936000 -0.134900
vn 0.279500 -0.936000 -0.214100
vn 0.214100 -0.936000 -0.279500
vn 0.134900 -0.936000 -0.325300
vn 0.045800 -0.936000 -0.349100
vn -0.045800 -0.936000 -0.349100
vn -0.134900 -0.936000 -0.325300
vn -0.214100 -0.936000 -0.279500
vn -0.279500 -0.936000 -0.214100
vn -0.325300 -0.936000 -0.134900
vn -0.349100 -0.936000 -0.045800
vn -0.349100 -0.936000 0.045800
vn -0.325300 -0.936000 0.134900
vn -0.279500 -0.936000 0.214100
vn -0.214100 -0.936000 0.279500
vn -0.134900 -0.936000 0.325300
vn -0.045800 -0.936000 0.349100
usemtl b0b0b0
s 1
f 1/1/1 51/2/2 52/3/3 2/4/4
f 2/4/4 52/3/3 54/5/5 3/6/6
f 3/6/6 54/5/5 55/7/7 4/8/8
f 4/8/8 55/7/7 56/9/9 5/10/10
f 5/10/10 56/9/9 57/11/11 6/12/12
f 6/12/12 57/11/11 58/13/13 7/14/14
f 7/14/14 58/13/13 59/15/15 8/16/16
f 8/16/16 59/15/15 60/17/17 9/18/18
f 9/18/18 60/17/17 61/19/19 10/20/20
f 10/20/20 61/19/19 62/21/21 11/22/22
f 11/22/22 62/21/21 63/23/23 12/24/24
f 12/24/24 63/23/23 64/25/25 13/26/26
f 13/26/26 64/25/25 65/27/27 14/28/28
f 14/28/28 65/27/27 66/29/29 15/30/30
f 15/30/30 66/29/29 67/31/31 16/32/32
f 16/32/32 67/31/31 68/33/33 17/34/34
f 17/34/34 68/33/33 69/35/35 18/36/36
f 18/36/36 69/35/35 70/37/37 19/38/38
f 19/38/38 70/37/37 71/39/39 20/40/40
f 20/40/40 71/39/39 72/41/41 21/42/42
f 21/42/42 72/41/41 73/43/43 22/44/44
f 22/44/44 73/43/43 74/45/45 23/46/46
f 23/46/46 74/45/45 53/47/47 24/48/48
f 24/48/48 53/47/47 51/2/49 1/1/50
f 123/49/51 124/50/52 49/51/53
f 124/50/52 125/52/54 49/51/53
f 125/52/54 126/53/55 49/51/53
f 126/53/55 127/54/56 49/51/53
f 127/54/56 128/55/57 49/51/53
f 128/55/57 129/56/58 49/51/53
f 129/56/58 130/57/59 49/51/53
f 130/57/59 131/58/60 49/51/53
f 131/58/60 132/59/61 49/51/53
f 132/59/61 133/60/62 49/51/53
f 133/60/62 134/61/63 49/51/53
f 134/61/63 135/62/64 49/51/53
f 135/62/64 136/63/65 49/51/53
f 136/63/65 137/64/66 49/51/53
f 137/64/66 138/65/67 49/51/53
f 138/65/67 139/66/68 49/51/53
f 139/66/68 140/67/69 49/51/53
f 140/67/69 141/68/70 49/51/53
f 141/68/70 142/69/71 49/51/53
f 142/69/71 143/70/72 49/51/53
f 143/70/72 144/71/73 49/51/53
f 144/71/73 145/72/74 49/51/53
f 145/72/74 146/73/75 49/51/53
f 146/73/75 123/49/51 49/51/53
f 219/74/76 220/75/76 50/51/76
f 221/76/76 219/74/76 50/51/76
f 222/77/76 221/76/76 50/51/76
f 223/78/76 222/77/76 50/51/76
f 224/79/76 223/78/76 50/51/76
f 225/80/76 224/79/76 50/51/76
f 226/81/76 225/80/76 50/51/76
f 227/82/76 226/81/76 50/51/76
f 228/83/76 227/82/76 50/51/76
f 229/84/76 228/83/76 50/51/76
f 230/85/76 229/84/76 50/51/76
f 231/86/76 230/85/76 50/51/76
f 232/87/76 231/86/76 50/51/76
f 233/88/76 232/87/76 50/51/76
f 234/89/76 233/88/76 50/51/76
f 235/90/76 234/89/76 50/51/76
f 236/91/76 235/90/76 50/51/76
f 237/92/76 236/91/76 50/51/76
f 238/93/76 237/92/76 50/51/76
f 239/94/76 238/93/76 50/51/76
f 240/95/76 239/94/76 50/51/76
f 241/96/76 240/95/76 50/51/76
f 242/97/76 241/96/76 50/51/76
f 220/75/76 242/97/76 50/51/76
f 51/2/2 25/1/77 26/4/78 52/3/3
f 53/47/47 48/48/79 25/1/80 51/2/49
f 52/3/3 26/4/81 27/6/82 54/5/5
f 54/5/5 27/6/83 28/8/84 55/7/7
f 55/7/7 28/8/85 29/10/86 56/9/9
f 56/9/9 29/10/87 30/12/88 57/11/11
f 57/11/11 30/12/89 31/14/90 58/13/13
f 58/13/13 31/14/91 32/16/92 59/15/15
f 59/15/15 32/16/93 33/18/94 60/17/17
f 60/17/17 33/18/95 34/20/96 61/19/19
f 61/19/19 34/20/97 35/22/98 62/21/21
f 62/21/21 35/22/99 36/24/100 63/23/23
f 63/23/23 36/24/101 37/26/102 64/25/25
f 64/25/25 37/26/103 38/28/104 65/27/27
f 65/27/27 38/28/105 39/30/106 66/29/29
f 66/29/29 39/30/107 40/32/108 67/31/31
f 67/31/31 40/32/109 41/34/110 68/33/33
f 68/33/33 41/34/111 42/36/112 69/35/35
f 69/35/35 42/36/113 43/38/114 70/37/37
f 70/37/37 43/38/115 44/40/116 71/39/39
f 71/39/39 44/40/117 45/42/118 72/41/41
f 72/41/41 45/42/119 46/44/120 73/43/43
f 73/43/43 46/44/121 47/46/122 74/45/45
f 74/45/45 47/46/123 48/48/124 53/47/47
f 1/1/53 2/4/53 75/98/53 76/99/53
f 2/4/53 3/6/53 77/100/53 75/98/53
f 3/6/53 4/8/53 78/101/53 77/100/53
f 4/8/53 5/10/53 79/102/53 78/101/53
f 5/10/53 6/12/53 80/103/53 79/102/53
f 6/12/53 7/14/53 81/104/53 80/103/53
f 7/14/53 8/16/53 82/105/53 81/104/53
f 8/16/53 9/18/53 83/106/53 82/105/53
f 9/18/53 10/20/53 84/107/53 83/106/53
f 10/20/53 11/22/53 85/108/53 84/107/53
f 11/22/53 12/24/53 86/109/53 85/108/53
f 12/24/53 13/26/53 87/110/53 86/109/53
f 13/26/53 14/28/53 88/111/53 87/110/53
f 14/28/53 15/30/53 89/112/53 88/111/53
f 15/30/53 16/32/53 90/113/53 89/112/53
f 16/32/53 17/34/53 91/114/53 90/113/53
f 17/34/53 18/36/53 92/115/53 91/114/53
f 18/36/53 19/38/53 93/116/53 92/115/53
f 19/38/53 20/40/53 94/117/53 93/116/53
f 20/40/53 21/42/53 95/118/53 94/117/53
f 21/42/53 22/44/53 96/119/53 95/118/53
f 22/44/53 23/46/53 97/120/53 96/119/53
f 23/46/53 24/48/53 98/121/53 97/120/53
f 24/48/53 1/1/53 76/99/53 98/121/53
f 76/99/125 75/98/126 100/122/127 99/123/128
f 75/98/126 77/100/129 101/124/130 100/122/127
f 77/100/129 78/101/131 102/125/132 101/124/130
f 78/101/131 79/102/133 103/126/134 102/125/132
f 79/102/133 80/103/135 104/127/136 103/126/134
f 80/103/135 81/104/137 105/128/138 104/127/136
f 81/104/137 82/105/139 106/129/140 105/128/138
f 82/105/139 83/106/141 107/130/142 106/129/140
f 83/106/141 84/107/143 108/131/144 107/130/142
f 84/107/143 85/108/145 109/132/146 108/131/144
f 85/108/145 86/109/147 110/133/148 109/132/146
f 86/109/147 87/110/149 111/134/150 110/133/148
f 87/110/149 88/111/151 112/135/152 111/134/150
f 88/111/151 89/112/153 113/136/154 112/135/152
f 89/112/153 90/113/155 114/137/156 113/136/154
f 90/113/155 91/114/157 115/138/158 114/137/156
f 91/114/157 92/115/159 116/139/160 115/138/158
f 92/115/159 93/116/161 117/140/162 116/139/160
f 93/116/161 94/117/163 118/141/164 117/140/162
f 94/117/163 95/118/165 119/142/166 118/141/164
f 95/118/165 96/119/167 120/143/168 119/142/166
f 96/119/167 97/120/169 121/144/170 120/143/168
f 97/120/169 98/121/171 122/145/172 121/144/170
f 98/121/171 76/99/125 99/123/128 122/145/172
f 99/123/128 100/122/127 148/146/173 147/147/174
f 147/147/174 148/146/173 150/148/175 149/149/176
f 149/149/177 150/148/178 124/50/52 123/49/51
f 100/122/127 101/124/130 151/150/179 148/146/173
f 148/146/173 151/150/179 152/151/180 150/148/175
f 150/148/178 152/151/181 125/52/54 124/50/52
f 101/124/130 102/125/132 153/152/182 151/150/179
f 151/150/179 153/152/182 154/153/183 152/151/180
f 152/151/181 154/153/184 126/53/55 125/52/54
f 102/125/132 103/126/134 155/154/185 153/152/182
f 153/152/182 155/154/185 156/155/186 154/153/183
f 154/153/184 156/155/187 127/54/56 126/53/55
f 103/126/134 104/127/136 157/156/188 155/154/185
f 155/154/185 157/156/188 158/157/189 156/155/186
f 156/155/187 158/157/190 128/55/57 127/54/56
f 104/127/136 105/128/138 159/158/191 157/156/188
f 157/156/188 159/158/191 160/159/192 158/157/189
f 158/157/190 160/159/193 129/56/58 128/55/57
f 105/128/138 106/129/140 161/160/194 159/158/191
f 159/158/191 161/160/194 162/161/195 160/159/192
f 160/159/193 162/161/196 130/57/59 129/56/58
f 106/129/140 107/130/142 163/162/197 161/160/194
f 161/160/194 163/162/197 164/163/198 162/161/195
f 162/161/196 164/163/199 131/58/60 130/57/59
f 107/130/142 108/131/144 165/164/200 163/162/197
f 163/162/197 165/164/200 166/165/201 164/163/198
f 164/163/199 166/165/202 132/59/61 131/58/60
f 108/131/144 109/132/146 167/166/203 165/164/200
f 165/164/200 167/166/203 168/167/204 166/165/201
f 166/165/202 168/167/205 133/60/62 132/59/61
f 109/132/146 110/133/148 169/168/206 167/166/203
f 167/166/203 169/168/206 170/169/207 168/167/204
f 168/167/205 170/169/208 134/61/63 133/60/62
f 110/133/148 111/134/150 171/170/209 169/168/206
f 169/168/206 171/170/209 172/171/210 170/169/207
f 170/169/208 172/171/211 135/62/64 134/61/63
f 111/134/150 112/135/152 173/172/212 171/170/209
f 171/170/209 173/172/212 174/173/213 172/171/210
f 172/171/211 174/173/214 136/63/65 135/62/64
f 112/135/152 113/136/154 175/174/215 173/172/212
f 173/172/212 175/174/215 176/175/216 174/173/213
f 174/173/214 176/175/217 137/64/66 136/63/65
f 113/136/154 114/137/156 177/176/218 175/174/215
f 175/174/215 177/176/218 178/177/219 176/175/216
f 176/175/217 178/177/220 138/65/67 137/64/66
f 114/137/156 115/138/158 179/178/221 177/176/218
f 177/176/218 179/178/221 180/179/222 178/177/219
f 178/177/220 180/179/223 139/66/68 138/65/67
f 115/138/158 116/139/160 181/180/224 179/178/221
f 179/178/221 181/180/224 182/181/225 180/179/222
f 180/179/223 182/181/226 140/67/69 139/66/68
f 116/139/160 117/140/162 183/182/227 181/180/224
f 181/180/224 183/182/227 184/183/228 182/181/225
f 182/181/226 184/183/229 141/68/70 140/67/69
f 117/140/162 118/141/164 185/184/230 183/182/227
f 183/182/227 185/184/230 186/185/231 184/183/228
f 184/183/229 186/185/232 142/69/71 141/68/70
f 118/141/164 119/142/166 187/186/233 185/184/230
f 185/184/230 187/186/233 188/187/234 186/185/231
f 186/185/232 188/187/235 143/70/72 142/69/71
f 119/142/166 120/143/168 189/188/236 187/186/233
f 187/186/233 189/188/236 190/189/237 188/187/234
f 188/187/235 190/189/238 144/71/73 143/70/72
f 120/143/168 121/144/170 191/190/239 189/188/236
f 189/188/236 191/190/239 192/191/240 190/189/237
f 190/189/238 192/191/241 145/72/74 144/71/73
f 121/144/170 122/145/172 193/192/242 191/190/239
f 191/190/239 193/192/242 194/193/243 192/191/240
f 192/191/241 194/193/244 146/73/75 145/72/74
f 122/145/172 99/123/128 147/147/174 193/192/242
f 193/192/242 147/147/174 149/149/176 194/193/243
f 194/193/244 149/149/177 123/49/51 146/73/75
f 26/4/245 25/1/245 196/99/245 195/98/245
f 27/6/246 26/4/246 195/98/246 197/100/246
f 28/8/247 27/6/247 197/100/247 198/101/247
f 29/10/248 28/8/248 198/101/248 199/102/248
f 30/12/249 29/10/249 199/102/249 200/103/249
f 31/14/250 30/12/250 200/103/250 201/104/250
f 32/16/251 31/14/251 201/104/251 202/105/251
f 33/18/252 32/16/252 202/105/252 203/106/252
f 34/20/253 33/18/253 203/106/253 204/107/253
f 35/22/254 34/20/254 204/107/254 205/108/254
f 36/24/255 35/22/255 205/108/255 206/109/255
f 37/26/256 36/24/256 206/109/256 207/110/256
f 38/28/257 37/26/257 207/110/257 208/111/257
f 39/30/258 38/28/258 208/111/258 209/112/258
f 40/32/259 39/30/259 209/112/259 210/113/259
f 41/34/260 40/32/260 210/113/260 211/114/260
f 42/36/261 41/34/261 211/114/261 212/115/261
f 43/38/262 42/36/262 212/115/262 213/116/262
f 44/40/263 43/38/263 213/116/263 214/117/263
f 45/42/264 44/40/264 214/117/264 215/118/264
f 46/44/265 45/42/265 215/118/265 216/119/265
f 47/46/266 46/44/266 216/119/266 217/120/266
f 48/48/267 47/46/267 217/120/267 218/121/267
f 25/1/268 48/48/268 218/121/268 196/99/268
f 195/98/269 196/99/269 220/75/269 219/74/269
f 197/100/270 195/98/270 219/74/270 221/76/270
f 198/101/271 197/100/271 221/76/271 222/77/271
f 199/102/272 198/101/272 222/77/272 223/78/272
f 200/103/273 199/102/273 223/78/273 224/79/273
f 201/104/274 200/103/274 224/79/274 225/80/274
f 202/105/275 201/104/275 225/80/275 226/81/275
f 203/106/276 202/105/276 226/81/276 227/82/276
f 204/107/277 203/106/277 227/82/277 228/83/277
f 205/108/278 204/107/278 228/83/278 229/84/278
f 206/109/279 205/108/279 229/84/279 230/85/279
f 207/110/280 206/109/280 230/85/280 231/86/280
f 208/111/281 207/110/281 231/86/281 232/87/281
f 209/112/282 208/111/282 232/87/282 233/88/282
f 210/113/283 209/112/283 233/88/283 234/89/283
f 211/114/284 210/113/284 234/89/284 235/90/284
f 212/115/285 211/114/285 235/90/285 236/91/285
f 213/116/286 212/115/286 236/91/286 237/92/286
f 214/117/287 213/116/287 237/92/287 238/93/287
f 215/118/288 214/117/288 238/93/288 239/94/288
f 216/119/289 215/118/289 239/94/289 240/95/289
f 217/120/290 216/119/290 240/95/290 241/96/290
f 218/121/291 217/120/291 241/96/291 242/97/291
f 196/99/292 218/121/292 242/97/292 220/75/292
